[
  {
    "id": 1,
    "name": "Faes",
    "firstName": "Annick",
    "sex": "\u0000"
  },
  {
    "id": 2,
    "name": "Bareta",
    "firstName": "Wouter",
    "sex": "\u0000"
  },
  {
    "id": 3,
    "name": "De Ridder",
    "firstName": "Stijn",
    "sex": "\u0000"
  },
  {
    "id": 4,
    "name": "Neefs",
    "firstName": "Robby",
    "sex": "\u0000"
  },
  {
    "id": 5,
    "name": "Stinckens",
    "firstName": "An",
    "sex": "\u0000"
  },
  {
    "id": 6,
    "name": "Van Loon",
    "firstName": "Sara",
    "sex": "\u0000"
  },
  {
    "id": 7,
    "name": "Cortens",
    "firstName": "Bert",
    "sex": "\u0000"
  },
  {
    "id": 8,
    "name": "Wellens",
    "firstName": "Kristof",
    "sex": "\u0000"
  },
  {
    "id": 9,
    "name": "Waegenaere",
    "firstName": "Brenda",
    "sex": "\u0000"
  },
  {
    "id": 10,
    "name": "Smekens",
    "firstName": "Leo",
    "sex": "\u0000"
  },
  {
    "id": 11,
    "name": "Wuyts",
    "firstName": "Ellen",
    "sex": "\u0000"
  },
  {
    "id": 12,
    "name": "Van Deun",
    "firstName": "Steven",
    "sex": "\u0000"
  },
  {
    "id": 13,
    "name": "Geelen",
    "firstName": "Kevin",
    "sex": "\u0000"
  },
  {
    "id": 14,
    "name": "Heiremans",
    "firstName": "Liesbeth",
    "sex": "\u0000"
  },
  {
    "id": 15,
    "name": "Wellens",
    "firstName": "Dennis",
    "sex": "\u0000"
  },
  {
    "id": 16,
    "name": "Stes",
    "firstName": "Koen",
    "sex": "\u0000"
  },
  {
    "id": 17,
    "name": "De Weert",
    "firstName": "Dave",
    "sex": "\u0000"
  },
  {
    "id": 18,
    "name": "Vanlommel",
    "firstName": "Rik",
    "sex": "\u0000"
  },
  {
    "id": 19,
    "name": "Bertels",
    "firstName": "Maarten",
    "sex": "\u0000"
  },
  {
    "id": 20,
    "name": "Brughmans",
    "firstName": "Sarah",
    "sex": "\u0000"
  },
  {
    "id": 21,
    "name": "Goetschalckx",
    "firstName": "Stefaan",
    "sex": "\u0000"
  },
  {
    "id": 22,
    "name": "Verellen",
    "firstName": "Lies",
    "sex": "\u0000"
  },
  {
    "id": 23,
    "name": "Hofkens",
    "firstName": "Peter",
    "sex": "\u0000"
  },
  {
    "id": 24,
    "name": "Moerkens",
    "firstName": "Sophie",
    "sex": "\u0000"
  },
  {
    "id": 25,
    "name": "Van Deuren",
    "firstName": "Jan",
    "sex": "\u0000"
  },
  {
    "id": 26,
    "name": "Van Goethem",
    "firstName": "Kim",
    "sex": "\u0000"
  },
  {
    "id": 27,
    "name": "Smeyers",
    "firstName": "Wendy",
    "sex": "\u0000"
  },
  {
    "id": 28,
    "name": "Hendrickx",
    "firstName": "Joris",
    "sex": "\u0000"
  },
  {
    "id": 29,
    "name": "Hendrix",
    "firstName": "Stijn",
    "sex": "\u0000"
  },
  {
    "id": 30,
    "name": "Geelen",
    "firstName": "Bart",
    "sex": "\u0000"
  },
  {
    "id": 31,
    "name": "Verlinden",
    "firstName": "Lucas",
    "sex": "\u0000"
  },
  {
    "id": 32,
    "name": "Verhulst",
    "firstName": "Matthias",
    "sex": "\u0000"
  },
  {
    "id": 33,
    "name": "Adriaenssen",
    "firstName": "Kristof",
    "sex": "\u0000"
  },
  {
    "id": 34,
    "name": "Borders",
    "firstName": "Mathias",
    "sex": "\u0000"
  },
  {
    "id": 35,
    "name": "Bellen",
    "firstName": "Tom",
    "sex": "\u0000"
  },
  {
    "id": 36,
    "name": "Meir",
    "firstName": "Carl",
    "sex": "\u0000"
  },
  {
    "id": 37,
    "name": "Van Opstal",
    "firstName": "Dieter",
    "sex": "\u0000"
  },
  {
    "id": 38,
    "name": "Vlekken",
    "firstName": "Kevin",
    "sex": "\u0000"
  },
  {
    "id": 39,
    "name": "Waegenaere",
    "firstName": "Dave",
    "sex": "\u0000"
  },
  {
    "id": 40,
    "name": "Lowette",
    "firstName": "Katelijne",
    "sex": "\u0000"
  },
  {
    "id": 41,
    "name": "Van Beirendonck",
    "firstName": "Tim",
    "sex": "\u0000"
  },
  {
    "id": 42,
    "name": "De Ridder",
    "firstName": "Timothy",
    "sex": "\u0000"
  },
  {
    "id": 43,
    "name": "Gijbels",
    "firstName": "Kristof",
    "sex": "\u0000"
  },
  {
    "id": 44,
    "name": "Jacobs",
    "firstName": "Kevin",
    "sex": "\u0000"
  },
  {
    "id": 45,
    "name": "Theunis",
    "firstName": "Nicky",
    "sex": "\u0000"
  },
  {
    "id": 46,
    "name": "Versmissen",
    "firstName": "Ken",
    "sex": "\u0000"
  },
  {
    "id": 47,
    "name": "Goris",
    "firstName": "Marc",
    "sex": "\u0000"
  },
  {
    "id": 48,
    "name": "Tombeur",
    "firstName": "Isabelle",
    "sex": "\u0000"
  },
  {
    "id": 49,
    "name": "De Backer",
    "firstName": "Inge",
    "sex": "\u0000"
  },
  {
    "id": 50,
    "name": "Gysen",
    "firstName": "Britt",
    "sex": "\u0000"
  },
  {
    "id": 51,
    "name": "De Eerste",
    "firstName": "Antoon",
    "sex": "\u0000"
  },
  {
    "id": 52,
    "name": "De Eerste",
    "firstName": "Antoon",
    "sex": "\u0000"
  },
  {
    "id": 53,
    "name": "De Eerste",
    "firstName": "Antoon",
    "sex": "\u0000"
  },
  {
    "id": 54,
    "name": "De Eerste",
    "firstName": "Antoon",
    "sex": "\u0000"
  }
]